<svg xmlns="http://www.w3.org/2000/svg" xmlns:xlink="http://www.w3.org/1999/xlink" width="1920.273" height="1078" viewBox="0 0 1920.273 1078">
  <defs>
    <clipPath id="clip-path">
      <rect x="-75" y="287" width="877.801" height="1077.185" fill="none"/>
    </clipPath>
    <clipPath id="clip-path-2">
      <rect width="801.801" height="1365.185" fill="none"/>
    </clipPath>
    <clipPath id="clip-path-3">
      <rect width="146.132" height="252.132" fill="none"/>
    </clipPath>
    <clipPath id="clip-path-4">
      <rect width="252.132" height="252.132" fill="none"/>
    </clipPath>
    <clipPath id="clip-path-5">
      <rect width="389" height="137" fill="none"/>
    </clipPath>
    <clipPath id="clip-path-6">
      <rect width="389" height="138" fill="none"/>
    </clipPath>
  </defs>
  <g id="Group_112" data-name="Group 112" transform="translate(11698 21375)">
    <g id="Group_111" data-name="Group 111" transform="translate(-11699 -21375)">
      <g id="Scroll_Group_1" data-name="Scroll Group 1" transform="translate(1118.473 -286.445)" clip-path="url(#clip-path)" style="isolation: isolate">
        <g id="Repeat_Grid_10" data-name="Repeat Grid 10" clip-path="url(#clip-path-2)">
          <g id="Group_86" data-name="Group 86" transform="translate(-1581.378 -250.555)">
            <g id="Group_85" data-name="Group 85" transform="translate(2488.667 1637) rotate(180)">
              <path id="Path_511" data-name="Path 511" d="M0,0S117.922,208.1,409.259,171.1c326.658-41.482,467.062,198.847,386.135,363.014S354.983,732.962,405.242,998.865,18.5,1385,18.5,1385" transform="translate(87.862 0)" fill="none" stroke="#052bf0" stroke-miterlimit="10" stroke-width="3"/>
              <path id="Path_512" data-name="Path 512" d="M0,0S249,90.177,496.763,57.806,773.5,170.965,744.523,228.907C684.406,349.14,363.014,372.264,342.2,566.487c-15.642,146,108.672,342.2-173.415,446.252" transform="translate(0 240.466)" fill="none" stroke="#052bf0" stroke-miterlimit="10" stroke-width="3"/>
              <path id="Path_513" data-name="Path 513" d="M23.124,3.154S277.641-29.32,232.208,114.139c-52.076,164.436-174.4,161.854-58.793,369.951C214.535,558.105,226.594,856.351,0,796.235" transform="translate(87.862 334.423)" fill="none" stroke="#052bf0" stroke-miterlimit="10" stroke-width="3"/>
              <ellipse id="Ellipse_52" data-name="Ellipse 52" cx="114.453" cy="62.429" rx="114.453" ry="62.429" transform="translate(427.754 379.198)" fill="none" stroke="#052bf0" stroke-miterlimit="10" stroke-width="3"/>
            </g>
          </g>
        </g>
      </g>
      <path id="Path_515" data-name="Path 515" d="M1189.46,304.3l-32.067,32.067L1125.326,304.3l-23.933,23.933,32.067,32.067-32.067,32.067,23.933,23.934,32.067-32.067L1189.46,416.3l23.933-23.933L1181.326,360.3l32.067-32.067Z" transform="translate(509.822 425.697)" fill="#ff0b53"/>
      <circle id="Ellipse_58" data-name="Ellipse 58" cx="30.142" cy="30.142" r="30.142" transform="translate(1093.709 592.955) rotate(-45)" fill="#ff0b53"/>
      <g id="Group_109" data-name="Group 109">
        <g id="Scroll_Group_2" data-name="Scroll Group 2" transform="translate(1773.81 135.91)" clip-path="url(#clip-path-3)" style="isolation: isolate">
          <g id="Repeat_Grid_11" data-name="Repeat Grid 11" clip-path="url(#clip-path-4)">
            <g transform="translate(-1773.81 -135.91)">
              <circle id="Ellipse_53" data-name="Ellipse 53" cx="89.142" cy="89.142" r="89.142" transform="translate(1773.81 261.977) rotate(-45)" fill="#ff0b53"/>
            </g>
          </g>
        </g>
        <g id="Scroll_Group_3" data-name="Scroll Group 3" transform="translate(515.5 941)" clip-path="url(#clip-path-5)" style="isolation: isolate">
          <g id="Repeat_Grid_9" data-name="Repeat Grid 9" clip-path="url(#clip-path-6)">
            <g transform="translate(-515.5 -941)">
              <path id="Path_516" data-name="Path 516" d="M355.278,416.168c-107.419,0-194.5,87.081-194.5,194.5s87.081,194.5,194.5,194.5,194.5-87.081,194.5-194.5S462.7,416.168,355.278,416.168Zm0,327.68a133.18,133.18,0,1,1,133.18-133.18A133.18,133.18,0,0,1,355.278,743.848Z" transform="translate(354.722 524.832)" fill="#ff0b53"/>
            </g>
          </g>
        </g>
      </g>
    </g>
    <g id="Rectangle_151" data-name="Rectangle 151" transform="translate(-11698 -21375)" fill="none" stroke="#fff" stroke-width="1">
      <rect width="1920" height="1078" stroke="none"/>
      <rect x="0.5" y="0.5" width="1919" height="1077" fill="none"/>
    </g>
  </g>
</svg>
